534
 generated by VMD
 C        -3.601950        1.690871       -0.993412
 C        -2.218266        1.524240       -0.991802
 C        -1.395225        2.526586       -0.459300
 C        -1.965482        3.690833        0.067304
 C        -3.344683        3.876698        0.007733
 C        -4.167916        2.873612       -0.510766
 H        -4.231110        0.883805       -1.371986
 H        -1.776065        0.610724       -1.394330
 H        -1.318616        4.457751        0.494855
 H        -3.777903        4.804790        0.384389
 H        -5.250983        3.009736       -0.528953
 N         0.005387        2.290154       -0.256025
 N         0.806318        2.004881       -1.183877
 C         0.473403        2.097940       -2.567936
 C         1.000726        1.109814       -3.411844
 C        -0.205877        3.200459       -3.109179
 C         0.767001        1.178286       -4.783873
 H         1.587812        0.296647       -2.979997
 C        -0.402571        3.276219       -4.484628
 H        -0.522382        4.015251       -2.457757
 C         0.059991        2.256268       -5.323412
 H         1.164167        0.402195       -5.442473
 H        -0.890823        4.144960       -4.925349
 H        -0.094926        2.332136       -6.402930
 C        16.852802        3.714321       -7.269260
 C        16.804443        5.103351       -7.690121
 N        16.829706        2.581526       -6.999622
 H        16.431292        5.052145       -8.758465
 H        17.798298        5.546211       -7.752876
 H        16.192204        5.690671       -6.964778
 C        16.510895        3.088887      -12.386807
 C        15.089326        3.061298      -12.603125
 N        17.651787        2.899132      -12.221989
 H        14.604099        2.505795      -11.785912
 H        14.889445        2.601813      -13.550902
 H        14.739948        4.128708      -12.615092
 C        15.932755       -4.297336        1.774465
 C        14.827746       -4.887439        2.465842
 N        16.887983       -3.898913        1.246323
 H        13.991814       -4.218600        2.647491
 H        15.163706       -5.180652        3.477764
 H        14.440810       -5.723113        1.884149
 C        19.450802        0.648145       -8.821701
 C        18.464321        0.546015       -9.898668
 N        20.315161        0.673002       -8.062788
 H        18.785622        1.067279      -10.806634
 H        17.519230        1.140740       -9.655573
 H        18.217001       -0.479932       -9.993781
 C         2.051579       -6.559543      -10.635630
 C         1.468209       -6.322816       -9.335390
 N         2.627114       -6.870397      -11.596667
 H         1.458164       -7.312881       -8.862607
 H         0.465473       -6.003634       -9.426123
 H         2.040617       -5.549560       -8.764900
 C        28.039753      -10.087621      -12.321482
 C        27.151358       -9.357866      -11.493881
 N        28.891516      -10.522089      -12.978492
 H        26.104862       -9.536695      -11.569637
 H        27.276003       -8.279081      -11.721427
 H        27.489513       -9.424250      -10.455014
 C         7.351201       -3.251342        6.001756
 C         7.639069       -4.366755        5.141679
 N         7.007074       -2.335249        6.675750
 H         6.718306       -4.954922        4.903661
 H         8.312510       -5.065463        5.653400
 H         8.110422       -3.969594        4.200089
 C         5.722969       -0.765861       -5.607832
 C         6.337279       -0.691186       -4.324107
 N         5.401700       -0.891282       -6.718208
 H         5.794695       -0.966107       -3.399897
 H         6.770005        0.327611       -4.166788
 H         7.224281       -1.326956       -4.408945
 C        23.587976        1.440025        5.036724
 C        25.038689        1.875929        5.022210
 N        22.471664        1.072261        5.188473
 H        25.655451        1.645046        4.153289
 H        25.521086        1.517227        5.950369
 H        25.055708        2.997323        5.186994
 C         3.903997       -6.811540        1.231010
 C         5.070925       -6.765862        2.117146
 N         3.050361       -6.904238        0.421292
 H         4.847158       -7.498662        2.890725
 H         5.139695       -5.796366        2.621056
 H         6.005012       -7.006706        1.551568
 C        14.599259       -5.221938       -5.455782
 C        14.330826       -5.004056       -6.855057
 N        14.745263       -5.495899       -4.333963
 H        14.759131       -4.010539       -7.057186
 H        13.247909       -4.870150       -7.021724
 H        14.711221       -5.850122       -7.469434
 C        10.739881       -5.231725       -5.626100
 C        11.196212       -4.430769       -4.497350
 N        10.391318       -5.913607       -6.491168
 H        10.788607       -4.888615       -3.592253
 H        10.855245       -3.404608       -4.644304
 H        12.299967       -4.472209       -4.338238
 C         6.788801       -2.762082        1.648040
 C         5.825298       -2.695186        0.621014
 N         7.599401       -2.594047        2.498995
 H         4.974525       -2.071290        0.944549
 H         5.453731       -3.720792        0.322599
 H         6.286138       -2.169275       -0.223551
 C        11.442167        6.331638      -11.784385
 C        10.629858        6.723968      -10.693250
 N        11.970408        5.893903      -12.744846
 H         9.646844        7.024190      -11.070377
 H        10.964052        7.639369      -10.142488
 H        10.444895        5.953498       -9.930099
 C        24.377859       -4.799312        9.983878
 C        24.532663       -4.699600        8.574701
 N        24.156115       -5.167279       11.046114
 H        24.363663       -3.655343        8.267829
 H        23.778227       -5.349396        8.138230
 H        25.519114       -4.923050        8.249971
 C        21.227829      -10.252445       -4.801105
 C        20.095150       -9.819046       -5.557953
 N        22.171648      -10.641888       -4.256917
 H        19.872999       -8.802660       -5.308041
 H        19.251007      -10.477139       -5.237701
 H        20.348410       -9.895369       -6.633545
 C        11.905378        4.411095        0.306329
 C        11.148909        4.734544        1.476851
 N        12.636872        4.071373       -0.531197
 H        11.034172        3.820642        2.087480
 H        10.144274        5.039993        1.297491
 H        11.766066        5.446784        2.063707
 C        23.238745        8.078454      -12.720338
 C        22.053213        7.430225      -13.260591
 N        24.187317        8.520329      -12.233224
 H        22.060286        6.354092      -12.917573
 H        22.072004        7.322005      -14.373845
 H        21.125912        7.923030      -12.934063
 C        17.690845       -7.536278       -8.521434
 C        17.387877       -7.332377       -7.105081
 N        18.086479       -7.597245       -9.617521
 H        16.374796       -7.674811       -6.818086
 H        17.355368       -6.220158       -6.943987
 H        18.080706       -7.838042       -6.417682
 C         9.206092        2.987757       -3.318535
 C         9.408364        1.949988       -2.372967
 N         8.999844        3.768148       -4.138299
 H         8.470279        1.571884       -1.984895
 H         9.966497        2.237722       -1.478016
 H         9.818422        1.057577       -2.964045
 C        21.509098       -5.726513        4.850827
 C        21.866037       -4.482231        5.547063
 N        21.145704       -6.635117        4.213159
 H        21.134615       -4.224909        6.342623
 H        21.923201       -3.718009        4.737350
 H        22.819326       -4.533376        5.971792
 C        12.898817        1.243682       -3.235926
 C        12.450253        0.108383       -2.442896
 N        13.374800        1.890306       -4.088328
 H        12.614674        0.182109       -1.345595
 H        13.000758       -0.742384       -2.791095
 H        11.387490       -0.098659       -2.592248
 C        11.157753        1.920549       -7.755739
 C        10.680656        1.881669       -9.146578
 N        11.510955        1.741160       -6.685707
 H        11.129262        1.097779       -9.716352
 H        10.899471        2.831488       -9.647411
 H         9.606471        1.781885       -9.191561
 C        24.198923       -2.491521        3.990732
 C        24.472385       -1.181215        4.546297
 N        23.966436       -3.530870        3.530283
 H        23.790005       -0.437186        4.093116
 H        25.545298       -0.901724        4.369447
 H        24.349689       -1.219087        5.621735
 C         7.923823       -4.334544       -6.202788
 C         7.404961       -5.070864       -7.367723
 N         8.315209       -3.620231       -5.389590
 H         7.985827       -5.984815       -7.469538
 H         7.442807       -4.409799       -8.253219
 H         6.359733       -5.373280       -7.254488
 C        14.526130      -10.514010       -6.824709
 C        13.941937      -11.761753       -7.264397
 N        14.815655       -9.456970       -6.438128
 H        14.462358      -12.351823       -8.101413
 H        12.902284      -11.568087       -7.534591
 H        13.914251      -12.513899       -6.441278
 C         9.642749       -7.726178       -1.114262
 C         8.875554       -8.921544       -1.297563
 N        10.389297       -6.850386       -1.005716
 H         8.747310       -9.169396       -2.375659
 H         7.878885       -8.845470       -0.944742
 H         9.396935       -9.745561       -0.727406
 C        13.224032       -6.441753       -0.494469
 C        13.070775       -5.894751       -1.795227
 N        13.366438       -6.691690        0.615162
 H        13.941012       -6.030029       -2.445907
 H        12.841983       -4.811582       -1.810333
 H        12.261854       -6.402651       -2.388031
 C        24.353228        3.684513      -12.107417
 C        22.913679        3.720103      -12.176140
 N        25.543354        3.642807      -12.042291
 H        22.569736        4.690824      -11.779946
 H        22.548248        2.979079      -11.439185
 H        22.457195        3.374514      -13.128117
 C         9.562129       -6.295820        2.302325
 C        11.015074       -5.945732        2.385378
 N         8.432955       -6.572602        2.241993
 H        11.320959       -5.909831        3.453953
 H        11.191560       -4.953931        2.018491
 H        11.554853       -6.775710        1.842424
 C        11.841075        1.804237      -12.517302
 C        11.920620        2.760715      -13.606864
 N        11.810991        1.116084      -11.589645
 H        12.818513        3.389773      -13.476561
 H        11.075388        3.476003      -13.687438
 H        11.905522        2.287242      -14.617129
 C        22.474010       -9.917051        4.245171
 C        22.661978       -8.954659        5.289006
 N        22.497290      -10.743507        3.414412
 H        22.692261       -7.952045        4.926910
 H        23.624590       -9.195928        5.786077
 H        21.922274       -9.024911        6.090070
 C        20.052311        5.822681        3.312652
 C        20.709553        4.954057        2.367409
 N        19.601873        6.594976        4.038935
 H        21.551752        4.498165        2.868273
 H        20.971464        5.577080        1.545337
 H        20.042074        4.139717        2.065614
 C        24.547281      -12.757045       -5.954916
 C        24.849293      -12.519826       -4.545240
 N        24.478422      -13.276713       -6.973900
 H        25.148113      -13.465264       -4.146671
 H        23.955658      -12.155440       -3.996169
 H        25.631348      -11.742899       -4.512267
 C        25.309439       -8.064841       -9.639838
 C        23.995102       -8.674409       -9.888590
 N        26.402756       -7.736794       -9.339828
 H        23.494238       -8.339571      -10.810082
 H        23.250982       -8.415195       -9.139605
 H        24.023239       -9.793759      -10.004030
 C         3.674037        3.157500       -8.358268
 C         4.025002        1.715325       -8.057008
 N         3.190440        4.202225       -8.573958
 H         3.084302        1.202532       -7.893933
 H         4.624099        1.722431       -7.174154
 H         4.609739        1.260491       -8.881546
 C        20.521490       -9.079307       -0.810233
 C        21.672493       -9.670753       -1.465383
 N        19.461149       -8.647235       -0.609648
 H        22.200415      -10.529318       -0.972125
 H        22.423433       -8.889613       -1.735588
 H        21.300892      -10.133495       -2.417799
 C        14.417717        9.336470       -3.063550
 C        15.262385        8.522402       -4.015630
 N        13.620152        9.749143       -2.331936
 H        15.796927        7.754519       -3.436000
 H        15.930826        9.121869       -4.622369
 H        14.497821        8.097052       -4.695709
 C        22.103106       -2.514883       -9.296863
 C        22.981066       -1.453153       -8.858833
 N        21.737030       -3.557819       -9.623698
 H        23.851263       -1.926392       -8.339609
 H        22.409739       -0.734802       -8.174167
 H        23.415470       -1.015871       -9.791595
 C        27.233265      -15.070738        5.306612
 C        27.331717      -13.831257        6.107949
 N        27.284445      -16.082239        4.723744
 H        27.279028      -14.028559        7.213148
 H        26.525307      -13.123769        5.820500
 H        28.279236      -13.348950        5.927011
 C         6.941335       -2.260908      -10.018810
 C         6.724078       -0.783526       -9.838156
 N         7.167965       -3.363929       -9.949858
 H         7.724737       -0.345603       -9.652267
 H         6.078036       -0.726037       -8.967064
 H         6.246031       -0.380328      -10.726281
 C        22.633575       -0.264816      -11.806283
 C        21.593773       -1.143395      -12.283650
 N        23.533813        0.393097      -11.417612
 H        20.733315       -1.197841      -11.642466
 H        22.051361       -2.157223      -12.342679
 H        21.383781       -0.863652      -13.304366
 C        18.171644      -11.232368      -12.729941
 C        17.309780      -12.417542      -12.616672
 N        18.883364      -10.333148      -12.897353
 H        17.078733      -12.687952      -11.556397
 H        17.717747      -13.257376      -13.162959
 H        16.375946      -12.217275      -13.131720
 C        18.096018       -7.553316       -3.112139
 C        16.951674       -7.851649       -2.277124
 N        18.967793       -7.239679       -3.835602
 H        16.699083       -6.874408       -1.769511
 H        17.228710       -8.552757       -1.480982
 H        16.113337       -8.123644       -2.916373
 C        12.150140       -1.902737      -15.219968
 C        11.684170       -1.443427      -13.952231
 N        12.266521       -2.469514      -16.221251
 H        11.521914       -2.265247      -13.232067
 H        10.733859       -0.886082      -14.018959
 H        12.359925       -0.792088      -13.405687
 C         9.021082        4.117579       -6.840375
 C         8.270914        2.824294       -6.816450
 N         9.575150        5.119455       -6.977311
 H         8.015042        2.486904       -7.865685
 H         7.315710        3.058200       -6.316289
 H         8.864786        2.099051       -6.183896
 C        10.810913       -8.964569       -9.191272
 C        10.264446       -7.837269       -8.467003
 N        11.429088       -9.802092       -9.726884
 H         9.312295       -7.537267       -8.891309
 H        11.003930       -7.032471       -8.502632
 H        10.174003       -8.208591       -7.416442
 C        13.491221       -2.214653       -9.304624
 C        13.735033       -1.437219      -10.516358
 N        13.419633       -2.661532       -8.219783
 H        13.422493       -1.955542      -11.426197
 H        14.872025       -1.271547      -10.621811
 H        13.192317       -0.493594      -10.444453
 C        15.439607      -12.263330        3.095209
 C        16.572472      -11.328005        2.996895
 N        14.741665      -13.162139        3.337282
 H        17.568583      -11.772006        3.297700
 H        16.363932      -10.443609        3.633351
 H        16.566286      -10.855294        2.012445
 C        14.174096        0.855139        3.869145
 C        14.687680        0.720002        2.524607
 N        13.946679        0.742238        5.027819
 H        15.591756        0.078090        2.584685
 H        14.925821        1.652259        1.985697
 H        14.046155        0.170605        1.797718
 C        19.037781       -4.299308       -0.487517
 C        20.141836       -4.697465        0.307586
 N        18.285503       -3.901170       -1.267377
 H        19.723455       -4.796761        1.366088
 H        20.886066       -3.869388        0.370154
 H        20.705498       -5.598573       -0.028296
 C        15.110281       -8.293060        3.055258
 C        13.660212       -8.334381        2.873676
 N        16.250803       -8.252261        3.229909
 H        13.176055       -7.410199        3.136387
 H        13.249803       -9.101006        3.478309
 H        13.420652       -8.596730        1.805294
 C         3.487381       -4.899951       -5.772660
 C         3.210004       -3.594656       -6.378187
 N         3.797627       -5.952964       -5.359727
 H         4.189016       -3.251058       -6.784710
 H         2.884362       -2.858932       -5.621200
 H         2.407438       -3.591406       -7.178795
 C        18.866606       -1.224607       -5.996960
 C        17.673920       -0.361420       -5.790425
 N        19.775110       -1.846394       -6.302206
 H        16.763327       -0.805400       -6.121327
 H        17.868637        0.644656       -6.265340
 H        17.572371       -0.274354       -4.675071
 C        14.507347       -7.992359       -9.458613
 C        15.080963       -9.165458      -10.036012
 N        14.061980       -7.017105       -8.999015
 H        15.878259       -8.859136      -10.785949
 H        14.329215       -9.719400      -10.566417
 H        15.597045       -9.806933       -9.335565
 C        18.292454       -4.166924       -5.124700
 C        19.386806       -4.070202       -4.180027
 N        17.554348       -4.415609       -5.980808
 H        19.098284       -3.677596       -3.196851
 H        20.126614       -3.399837       -4.577232
 H        19.747566       -5.115791       -4.113424
 C         8.166791      -10.121487       -5.710375
 C         8.157881      -10.853726       -6.970028
 N         8.061412       -9.569657       -4.709243
 H         7.387670      -11.649638       -7.044718
 H         9.126002      -11.395322       -7.029715
 H         7.950016      -10.180242       -7.805194
 C         6.559556      -10.203823        1.795425
 C         7.180174       -9.961473        3.110350
 N         6.138346      -10.449439        0.746211
 H         6.409259       -9.893399        3.907953
 H         7.706821       -8.968559        3.166167
 H         7.879371      -10.779377        3.408606
 C        19.455879       -1.908522        3.046454
 C        18.690235       -1.250206        2.037264
 N        20.084949       -2.415898        3.904650
 H        18.425035       -0.245138        2.401939
 H        17.787777       -1.774323        1.795703
 H        19.301092       -1.213691        1.093227
 C         5.549474        1.960839       -1.279832
 C         4.134792        2.204860       -1.223203
 N         6.672310        1.592521       -1.352806
 H         3.642147        1.835305       -0.325458
 H         3.737113        1.722669       -2.116350
 H         3.898074        3.264410       -1.325640
 C        24.178335        5.083306        2.160916
 C        24.801291        6.370839        1.886516
 N        23.722502        4.015630        2.373446
 H        24.231041        6.985559        1.167405
 H        25.873213        6.214234        1.589840
 H        24.937634        6.932920        2.831581
 C        18.088675        0.702811        4.808119
 C        17.547806        0.154159        6.001063
 N        18.660828        1.077336        3.855858
 H        18.047779       -0.773464        6.220618
 H        16.472357       -0.043218        5.965638
 H        17.803362        0.850429        6.857629
 C        11.763961      -10.920990        0.959742
 C        12.505247      -11.627364       -0.061852
 N        11.280031      -10.443316        1.905227
 H        13.579570      -11.607114        0.269607
 H        12.432163      -11.044368       -1.028723
 H        12.173159      -12.659121       -0.205308
 C        17.973286       -2.741078        8.963249
 C        18.813225       -3.782410        9.482017
 N        17.348032       -1.846852        8.520288
 H        19.554379       -3.965806        8.693441
 H        18.142069       -4.638966        9.678123
 H        19.328674       -3.444074       10.440413
 C         8.789708        1.149688      -13.994106
 C         8.394207        1.312343      -12.600403
 N         9.394653        0.890016      -14.957885
 H         9.187392        1.861331      -12.135256
 H         8.239699        0.379793      -12.090041
 H         7.470909        1.855436      -12.427558
 C        11.406263       -1.371620        0.908628
 C        10.199993       -0.899095        1.628470
 N        12.188024       -1.831413        0.200767
 H         9.591292       -0.374201        0.884259
 H        10.473424       -0.137714        2.379499
 H         9.762411       -1.790789        2.130629
 C        10.086512       -1.026299       -5.328237
 C        11.248503       -1.266842       -6.202234
 N         9.144718       -0.543252       -4.846308
 H        10.811246       -1.218640       -7.212402
 H        11.863432       -2.175709       -6.106575
 H        11.975504       -0.434640       -6.160453
 C        23.935007       -9.519388       -6.868206
 C        24.652288       -8.662084       -6.029748
 N        23.331778      -10.287827       -7.469743
 H        24.878298       -9.158782       -5.047001
 H        24.028389       -7.739096       -5.776003
 H        25.550755       -8.317885       -6.560968
 C        15.115652       -1.887000       -3.413997
 C        16.008795       -2.904237       -2.819961
 N        14.454523       -1.169433       -4.012355
 H        15.921759       -3.799293       -3.471270
 H        15.615502       -3.205407       -1.874013
 H        17.068832       -2.598556       -2.817452
 C         2.325423       -4.770387       -2.262181
 C         2.554731       -6.171474       -2.586092
 N         2.431753       -3.597714       -2.172320
 H         3.157973       -6.570821       -1.778059
 H         3.130499       -6.183400       -3.505075
 H         1.649788       -6.737821       -2.838532
 C        22.587460        0.322037        1.822047
 C        21.526146        1.198124        2.342318
 N        23.498674       -0.303165        1.526762
 H        20.819397        1.542252        1.609929
 H        22.009436        2.086904        2.688718
 H        21.092283        0.723078        3.231736
 C        13.319348        4.636307       -6.077934
 C        12.240073        4.540133       -5.135917
 N        14.260530        4.781583       -6.771289
 H        11.298371        4.959070       -5.485505
 H        12.564704        5.114230       -4.278907
 H        12.163068        3.465156       -4.812245
 C         8.850197        2.070225        1.179321
 C         7.818297        1.449753        1.931079
 N         9.818373        2.377742        0.621574
 H         8.194515        0.624614        2.644314
 H         7.071167        1.044825        1.258376
 H         7.293423        2.188796        2.527606
 C        11.143766      -11.983025       -3.208740
 C         9.898093      -12.416014       -3.841519
 N        12.278445      -11.791290       -2.947862
 H        10.079310      -12.836810       -4.868700
 H         9.268581      -11.532025       -4.019546
 H         9.529392      -13.215073       -3.202745
 C         9.861084        7.239361        3.522272
 C        11.082486        7.540757        4.204947
 N         8.880292        6.847837        2.999557
 H        11.776793        6.710793        4.196830
 H        10.933869        7.823803        5.287291
 H        11.569800        8.408036        3.731162
 C        19.954367      -10.876443        1.731677
 C        19.955839       -9.676704        2.533557
 N        19.900866      -11.856236        1.085805
 H        19.045422       -9.074286        2.364061
 H        20.900999       -9.152595        2.376191
 H        19.837151      -10.057537        3.551389
 C        16.530094        4.274091       -3.740932
 C        15.633134        3.189748       -4.039268
 N        17.150278        5.230948       -3.521091
 H        15.251246        3.209787       -5.036588
 H        14.723583        3.376573       -3.449902
 H        16.014399        2.214450       -3.763059
 C        14.269838       -4.632604      -12.297260
 C        15.509072       -5.430054      -12.412863
 N        13.308661       -3.995152      -12.147127
 H        15.748839       -5.684971      -13.456150
 H        15.530862       -6.357622      -11.841962
 H        16.382639       -4.783394      -12.066169
 C        14.990715        1.215234       -8.776657
 C        14.897908        0.878531       -7.385311
 N        15.180631        1.602568       -9.867141
 H        15.844121        0.937398       -6.870367
 H        14.493455       -0.121295       -7.246948
 H        14.177884        1.549035       -6.926386
 C        11.300878       -9.686796       -5.270742
 C        11.687301       -8.438739       -4.599131
 N        10.970060      -10.705683       -5.729601
 H        12.647928       -8.027138       -4.919231
 H        11.806570       -8.556605       -3.482367
 H        10.874380       -7.711584       -4.830958
 C        21.948620        5.698005       -3.622174
 C        20.881863        6.319332       -4.323328
 N        22.888247        5.364606       -3.020139
 H        19.918163        5.804274       -4.272469
 H        21.271507        6.406771       -5.358837
 H        20.719707        7.341901       -3.986831
 C        26.260027        6.905602       -9.690325
 C        25.387913        5.784289       -9.903110
 N        26.996937        7.787437       -9.539755
 H        24.702499        5.966182      -10.734900
 H        24.850697        5.615992       -8.920726
 H        25.997587        4.874526      -10.133555
 C        18.489573       -6.487995        6.772487
 C        18.843904       -7.729842        6.100389
 N        18.136141       -5.492001        7.261410
 H        17.904648       -8.095222        5.649787
 H        19.251669       -8.422482        6.872225
 H        19.599300       -7.520885        5.370124
 C        18.237106      -11.693106       -2.668731
 C        17.856699      -12.644284       -1.653230
 N        18.549944      -10.903586       -3.469100
 H        18.451900      -13.563649       -1.758323
 H        16.826624      -12.849508       -1.775898
 H        18.007742      -12.297650       -0.633889
 C        20.640514        7.064767       -9.030269
 C        21.974424        7.377871       -9.184989
 N        19.537983        6.660612       -8.879238
 H        22.363068        7.700586       -8.217741
 H        22.105677        8.195437       -9.864807
 H        22.632042        6.566140       -9.532723
